<!-- Generated by IcoMoon.io -->
<svg version="1.1" xmlns="http://www.w3.org/2000/svg" width="25" height="25" viewBox="0 0 25 25">
<title>chevron-right</title>
<path d="M11.454 5.645c0.523 0.51 5.627 5.869 5.627 5.869 0.279 0.274 0.419 0.63 0.419 0.986s-0.14 0.713-0.419 0.984c0 0-5.105 5.361-5.627 5.869-0.523 0.51-1.462 0.545-2.019 0-0.557-0.543-0.601-1.301 0-1.968l4.684-4.885-4.684-4.885c-0.601-0.666-0.557-1.426 0-1.97 0.556-0.545 1.496-0.511 2.019 0z"></path>
</svg>
