<!-- Generated by IcoMoon.io -->
<svg version="1.1" xmlns="http://www.w3.org/2000/svg" width="25" height="25" viewBox="0 0 25 25">
<title>key</title>
<path d="M22.114 5.906c-0.629-3.721-4.025-6.209-7.586-5.551-3.563 0.656-6.57 3.52-5.941 7.244 0.134 0.801 0.51 2.055 0.954 2.956l-6.469 9.654c-0.239 0.356-0.374 0.999-0.302 1.426l0.416 2.464c0.073 0.427 0.465 0.715 0.875 0.643l1.895-0.351c0.41-0.074 0.93-0.435 1.155-0.799l2.559-4.139 0.023-0.027 1.732-0.32 2.988-4.849c0.981 0.174 2.39 0.115 3.223-0.039 3.56-0.657 5.109-4.588 4.48-8.311zM18.957 7.815c-0.98 1.463-1.98 0.432-3.379-0.594-1.399-1.023-2.669-1.652-1.69-3.115 0.98-1.462 2.907-1.819 4.309-0.794 1.4 1.024 1.739 3.040 0.76 4.502z"></path>
</svg>
