<!-- Generated by IcoMoon.io -->
<svg version="1.1" xmlns="http://www.w3.org/2000/svg" width="25" height="25" viewBox="0 0 25 25">
<title>location-pin</title>
<path d="M12.5 2.511c-3.452 0-6.25 2.786-6.25 6.238 0 5.968 6.25 13.75 6.25 13.75s6.25-7.784 6.25-13.75c0-3.45-2.798-6.238-6.25-6.238zM12.5 12.2c-1.865 0-3.375-1.511-3.375-3.375s1.51-3.375 3.375-3.375c1.863 0 3.374 1.511 3.374 3.375s-1.511 3.375-3.374 3.375z"></path>
</svg>
