<!-- Generated by IcoMoon.io -->
<svg version="1.1" xmlns="http://www.w3.org/2000/svg" width="25" height="25" viewBox="0 0 25 25">
<title>tv</title>
<path d="M22.5 1.25h-20c-1.376 0-2.5 1.125-2.5 2.5v13.75c0 1.375 1.102 2.723 2.451 2.991l5.465 1.094c0 0-4.704 2.165-1.666 2.165h12.5c3.037 0-1.668-2.165-1.668-2.165l5.466-1.094c1.348-0.269 2.451-1.616 2.451-2.991v-13.75c0-1.375-1.125-2.5-2.5-2.5zM22.5 17.5h-20v-13.75h20v13.75z"></path>
</svg>
